{
  "openapi": "3.0.3",
  "info": {
    "version": "0.0.1",
    "title": "Bologhu REST API",
    "description": "This is a REST API application for my blog. You can see my blog at [https://bologhu.com](https://bologhu.com)",
    "license": {
      "name": "MIT",
      "url": "https://opensource.org/licenses/MIT"
    },
    "contact": {
      "name": "Ferry L.H.",
      "email": "ferrylinton@gmail.com"
    }
  },
  "externalDocs": {
    "description": "Check My Website",
    "url": "https://bologhu.com"
  },
  "servers": [
    {
      "url": "https://api.bologhu.com",
      "description": "Production server"
    },
    {
      "url": "http://localhost:3001",
      "description": "Local server"
    }
  ],
  "security": [
    {
      "bearerAuth": []
    }
  ],
  "paths": {
    "/api/logcreates": {
      "get": {
        "operationId": "FindAll",
        "summary": "Get list of LogCreate",
        "tags": [
          "LogCreate"
        ],
        "parameters": [
          {
            "$ref": "#/components/parameters/Page"
          },
          {
            "in": "query",
            "name": "op",
            "required": false,
            "schema": {
              "type": "string",
              "enum": [
                "and",
                "or"
              ],
              "example": null
            }
          },
          {
            "in": "query",
            "name": "order",
            "required": false,
            "description": "ex. 'id', 'id|asc', 'id|desc', 'name|asc,createdAt|desc'",
            "schema": {
              "type": "string",
              "example": null
            }
          },
          {
            "in": "query",
            "name": "id",
            "required": false,
            "description": "ex. '455a5dbf75c'",
            "schema": {
              "type": "string",
              "example": ""
            }
          },
          {
            "in": "query",
            "name": "createdAt",
            "required": false,
            "description": "ex. '2021-03-09', 'gt|2021-03-09' (ex. gt, gte, lt, lte), 'between|2021-02-01,2021-04-01'",
            "schema": {
              "type": "string",
              "example": null
            }
          },
          {
            "in": "query",
            "name": "createdBy",
            "required": false,
            "description": "ex. 'ferrylinton'",
            "schema": {
              "type": "string",
              "example": null
            }
          },
          {
            "in": "query",
            "name": "updatedAt",
            "required": false,
            "description": "ex. '2021-03-09', 'gt|2021-03-09' (ex. gt, gte, lt, lte), 'between|2021-02-01,2021-04-01'",
            "schema": {
              "type": "string",
              "example": null
            }
          },
          {
            "in": "query",
            "name": "updatedBy",
            "required": false,
            "description": "ex. 'ferrylinton'",
            "schema": {
              "type": "string",
              "example": null
            }
          },
          {
            "in": "query",
            "name": "ip",
            "required": false,
            "description": "ex. '127.0.0.1'",
            "schema": {
              "type": "string",
              "example": ""
            }
          },
          {
            "in": "query",
            "name": "userAgent",
            "required": false,
            "description": "ex. 'chrome'",
            "schema": {
              "type": "string",
              "example": ""
            }
          },
          {
            "in": "query",
            "name": "host",
            "required": false,
            "description": "ex. 'localhost'",
            "schema": {
              "type": "string",
              "example": ""
            }
          }
        ],
        "responses": {
          "200": {
            "description": "Array of LogCreate, Amount of LogCreate and Pagination Info",
            "content": {
              "application/json": {
                "schema": {
                  "type": "object",
                  "properties": {
                    "rows": {
                      "type": "array",
                      "items": {
                        "$ref": "#/components/schemas/Log"
                      }
                    },
                    "count": {
                      "type": "integer",
                      "format": "int32",
                      "example": 10
                    },
                    "pagination": {
                      "type": "object",
                      "properties": {
                        "size": {
                          "type": "integer",
                          "format": "int32",
                          "example": 10
                        },
                        "total": {
                          "type": "integer",
                          "format": "int32",
                          "example": 5
                        },
                        "current": {
                          "type": "integer",
                          "format": "int32",
                          "example": 2
                        },
                        "hasPrevious": {
                          "type": "boolean",
                          "example": true
                        },
                        "hasNext": {
                          "type": "boolean",
                          "example": true
                        },
                        "previousUrl": {
                          "type": "string",
                          "example": "/?page=1"
                        },
                        "nextUrl": {
                          "type": "string",
                          "example": "/?page=3"
                        }
                      }
                    }
                  }
                }
              }
            }
          },
          "401": {
            "$ref": "#/components/responses/Unauthorized"
          },
          "403": {
            "description": "Forbidden",
            "content": {
              "application/json": {
                "schema": {
                  "type": "object",
                  "properties": {
                    "msg": {
                      "type": "string",
                      "example": "Permission denied"
                    }
                  }
                }
              }
            }
          },
          "500": {
            "$ref": "#/components/responses/InternalServerError"
          }
        }
      },
      "delete": {
        "operationId": "Delete",
        "summary": "Delete LogCreate's earliest data",
        "tags": [
          "LogCreate"
        ],
        "parameters": [
          {
            "in": "query",
            "name": "number",
            "required": false,
            "description": "amount of data to be deleted",
            "schema": {
              "type": "number",
              "example": 4
            }
          }
        ],
        "responses": {
          "204": {
            "description": "Data is deleted"
          },
          "401": {
            "$ref": "#/components/responses/Unauthorized"
          },
          "403": {
            "$ref": "#/paths/~1api~1logcreates/get/responses/403"
          },
          "500": {
            "$ref": "#/components/responses/InternalServerError"
          }
        }
      }
    },
    "/api/logcreates/{id}": {
      "get": {
        "operationId": "FindById",
        "summary": "Get LogCreate By Id",
        "tags": [
          "LogCreate"
        ],
        "parameters": [
          {
            "$ref": "#/paths/~1api~1logcreates/delete/parameters/0"
          }
        ],
        "responses": {
          "200": {
            "description": "LogCreate's detail",
            "content": {
              "application/json": {
                "schema": {
                  "$ref": "#/components/schemas/LogCreate"
                }
              }
            }
          },
          "401": {
            "$ref": "#/components/responses/Unauthorized"
          },
          "403": {
            "$ref": "#/paths/~1api~1logcreates/get/responses/403"
          },
          "404": {
            "$ref": "#/components/responses/NotFound"
          },
          "500": {
            "$ref": "#/components/responses/InternalServerError"
          }
        }
      }
    },
    "/api/logupdates": {
      "get": {
        "operationId": "FindAll",
        "summary": "Get list of LogUpdate",
        "tags": [
          "LogUpdate"
        ],
        "parameters": [
          {
            "$ref": "#/components/parameters/Page"
          },
          {
            "$ref": "#/paths/~1api~1logcreates/get/parameters/1"
          },
          {
            "$ref": "#/paths/~1api~1logcreates/get/parameters/2"
          },
          {
            "$ref": "#/paths/~1api~1logcreates/get/parameters/3"
          },
          {
            "$ref": "#/paths/~1api~1logcreates/get/parameters/4"
          },
          {
            "$ref": "#/paths/~1api~1logcreates/get/parameters/5"
          },
          {
            "$ref": "#/paths/~1api~1logcreates/get/parameters/6"
          },
          {
            "$ref": "#/paths/~1api~1logcreates/get/parameters/7"
          },
          {
            "$ref": "#/paths/~1api~1logcreates/get/parameters/8"
          },
          {
            "$ref": "#/paths/~1api~1logcreates/get/parameters/9"
          },
          {
            "$ref": "#/paths/~1api~1logcreates/get/parameters/10"
          }
        ],
        "responses": {
          "200": {
            "description": "Array of LogUpdate, Amount of LogUpdate and Pagination Info",
            "content": {
              "application/json": {
                "schema": {
                  "type": "object",
                  "properties": {
                    "rows": {
                      "type": "array",
                      "items": {
                        "$ref": "#/components/schemas/Log"
                      }
                    },
                    "count": {
                      "type": "integer",
                      "format": "int32",
                      "example": 10
                    },
                    "pagination": {
                      "$ref": "#/paths/~1api~1logcreates/get/responses/200/content/application~1json/schema/properties/pagination"
                    }
                  }
                }
              }
            }
          },
          "401": {
            "$ref": "#/components/responses/Unauthorized"
          },
          "403": {
            "$ref": "#/paths/~1api~1logcreates/get/responses/403"
          },
          "500": {
            "$ref": "#/components/responses/InternalServerError"
          }
        }
      },
      "delete": {
        "operationId": "Delete",
        "summary": "Delete LogUpdate's earliest data",
        "tags": [
          "LogUpdate"
        ],
        "parameters": [
          {
            "$ref": "#/paths/~1api~1logcreates/delete/parameters/0"
          }
        ],
        "responses": {
          "204": {
            "description": "Data is deleted"
          },
          "401": {
            "$ref": "#/components/responses/Unauthorized"
          },
          "403": {
            "$ref": "#/paths/~1api~1logcreates/get/responses/403"
          },
          "500": {
            "$ref": "#/components/responses/InternalServerError"
          }
        }
      }
    },
    "/api/logupdates/{id}": {
      "get": {
        "operationId": "FindById",
        "summary": "Get LogCreate By Id",
        "tags": [
          "LogUpdate"
        ],
        "parameters": [
          {
            "$ref": "#/paths/~1api~1logcreates/delete/parameters/0"
          }
        ],
        "responses": {
          "200": {
            "description": "LogUpdate's detail",
            "content": {
              "application/json": {
                "schema": {
                  "$ref": "#/components/schemas/LogUpdate"
                }
              }
            }
          },
          "401": {
            "$ref": "#/components/responses/Unauthorized"
          },
          "403": {
            "$ref": "#/paths/~1api~1logcreates/get/responses/403"
          },
          "404": {
            "$ref": "#/components/responses/NotFound"
          },
          "500": {
            "$ref": "#/components/responses/InternalServerError"
          }
        }
      }
    },
    "/api/logdeletes": {
      "get": {
        "operationId": "FindAll",
        "summary": "Get list of LogDelete",
        "tags": [
          "LogDelete"
        ],
        "parameters": [
          {
            "$ref": "#/components/parameters/Page"
          },
          {
            "$ref": "#/paths/~1api~1logcreates/get/parameters/1"
          },
          {
            "$ref": "#/paths/~1api~1logcreates/get/parameters/2"
          },
          {
            "$ref": "#/paths/~1api~1logcreates/get/parameters/3"
          },
          {
            "$ref": "#/paths/~1api~1logcreates/get/parameters/4"
          },
          {
            "$ref": "#/paths/~1api~1logcreates/get/parameters/5"
          },
          {
            "$ref": "#/paths/~1api~1logcreates/get/parameters/6"
          },
          {
            "$ref": "#/paths/~1api~1logcreates/get/parameters/7"
          },
          {
            "$ref": "#/paths/~1api~1logcreates/get/parameters/8"
          },
          {
            "$ref": "#/paths/~1api~1logcreates/get/parameters/9"
          },
          {
            "$ref": "#/paths/~1api~1logcreates/get/parameters/10"
          }
        ],
        "responses": {
          "200": {
            "description": "Array of LogDelete, Amount of LogDelete and Pagination Info",
            "content": {
              "application/json": {
                "schema": {
                  "type": "object",
                  "properties": {
                    "rows": {
                      "type": "array",
                      "items": {
                        "$ref": "#/components/schemas/Log"
                      }
                    },
                    "count": {
                      "type": "integer",
                      "format": "int32",
                      "example": 10
                    },
                    "pagination": {
                      "$ref": "#/paths/~1api~1logcreates/get/responses/200/content/application~1json/schema/properties/pagination"
                    }
                  }
                }
              }
            }
          },
          "401": {
            "$ref": "#/components/responses/Unauthorized"
          },
          "403": {
            "$ref": "#/paths/~1api~1logcreates/get/responses/403"
          },
          "500": {
            "$ref": "#/components/responses/InternalServerError"
          }
        }
      },
      "delete": {
        "operationId": "Delete",
        "summary": "Delete LogDelete's earliest data",
        "tags": [
          "LogDelete"
        ],
        "parameters": [
          {
            "$ref": "#/paths/~1api~1logcreates/delete/parameters/0"
          }
        ],
        "responses": {
          "204": {
            "description": "Data is deleted"
          },
          "401": {
            "$ref": "#/components/responses/Unauthorized"
          },
          "403": {
            "$ref": "#/paths/~1api~1logcreates/get/responses/403"
          },
          "500": {
            "$ref": "#/components/responses/InternalServerError"
          }
        }
      }
    },
    "/api/logdeletes/{id}": {
      "get": {
        "operationId": "FindById",
        "summary": "Get LogDelete By Id",
        "tags": [
          "LogDelete"
        ],
        "parameters": [
          {
            "$ref": "#/paths/~1api~1logcreates/delete/parameters/0"
          }
        ],
        "responses": {
          "200": {
            "description": "LogDelete's detail",
            "content": {
              "application/json": {
                "schema": {
                  "$ref": "#/components/schemas/LogDelete"
                }
              }
            }
          },
          "401": {
            "$ref": "#/components/responses/Unauthorized"
          },
          "403": {
            "$ref": "#/paths/~1api~1logcreates/get/responses/403"
          },
          "404": {
            "$ref": "#/components/responses/NotFound"
          },
          "500": {
            "$ref": "#/components/responses/InternalServerError"
          }
        }
      }
    },
    "/api/logsecurities": {
      "get": {
        "operationId": "FindAll",
        "summary": "Get list of LogSecurity",
        "tags": [
          "LogSecurity"
        ],
        "parameters": [
          {
            "$ref": "#/components/parameters/Page"
          },
          {
            "$ref": "#/paths/~1api~1logcreates/get/parameters/1"
          },
          {
            "$ref": "#/paths/~1api~1logcreates/get/parameters/2"
          },
          {
            "$ref": "#/paths/~1api~1logcreates/get/parameters/3"
          },
          {
            "$ref": "#/paths/~1api~1logcreates/get/parameters/4"
          },
          {
            "$ref": "#/paths/~1api~1logcreates/get/parameters/5"
          },
          {
            "$ref": "#/paths/~1api~1logcreates/get/parameters/6"
          },
          {
            "$ref": "#/paths/~1api~1logcreates/get/parameters/7"
          },
          {
            "$ref": "#/paths/~1api~1logcreates/get/parameters/8"
          },
          {
            "$ref": "#/paths/~1api~1logcreates/get/parameters/9"
          },
          {
            "$ref": "#/paths/~1api~1logcreates/get/parameters/10"
          }
        ],
        "responses": {
          "200": {
            "description": "Array of LogSecurity, Amount of LogSecurity and Pagination Info",
            "content": {
              "application/json": {
                "schema": {
                  "type": "object",
                  "properties": {
                    "rows": {
                      "type": "array",
                      "items": {
                        "$ref": "#/components/schemas/Log"
                      }
                    },
                    "count": {
                      "type": "integer",
                      "format": "int32",
                      "example": 10
                    },
                    "pagination": {
                      "$ref": "#/paths/~1api~1logcreates/get/responses/200/content/application~1json/schema/properties/pagination"
                    }
                  }
                }
              }
            }
          },
          "401": {
            "$ref": "#/components/responses/Unauthorized"
          },
          "403": {
            "$ref": "#/paths/~1api~1logcreates/get/responses/403"
          },
          "500": {
            "$ref": "#/components/responses/InternalServerError"
          }
        }
      },
      "delete": {
        "operationId": "Delete",
        "summary": "Delete LogSecurity's earliest data",
        "tags": [
          "LogSecurity"
        ],
        "parameters": [
          {
            "$ref": "#/paths/~1api~1logcreates/delete/parameters/0"
          }
        ],
        "responses": {
          "204": {
            "description": "Data is deleted"
          },
          "401": {
            "$ref": "#/components/responses/Unauthorized"
          },
          "403": {
            "$ref": "#/paths/~1api~1logcreates/get/responses/403"
          },
          "500": {
            "$ref": "#/components/responses/InternalServerError"
          }
        }
      }
    },
    "/api/logsecurities/{id}": {
      "get": {
        "operationId": "FindById",
        "summary": "Get LogSecurity By Id",
        "tags": [
          "LogSecurity"
        ],
        "parameters": [
          {
            "$ref": "#/paths/~1api~1logcreates/delete/parameters/0"
          }
        ],
        "responses": {
          "200": {
            "description": "LogSecurity's detail",
            "content": {
              "application/json": {
                "schema": {
                  "$ref": "#/components/schemas/LogSecurity"
                }
              }
            }
          },
          "401": {
            "$ref": "#/components/responses/Unauthorized"
          },
          "403": {
            "$ref": "#/paths/~1api~1logcreates/get/responses/403"
          },
          "404": {
            "$ref": "#/components/responses/NotFound"
          },
          "500": {
            "$ref": "#/components/responses/InternalServerError"
          }
        }
      }
    }
  },
  "components": {
    "schemas": {
      "Log": {
        "type": "object",
        "properties": {
          "id": {
            "type": "string",
            "example": "a91de895620"
          },
          "ip": {
            "type": "string",
            "example": "127.0.0.1"
          },
          "userAgent": {
            "type": "string",
            "example": "Mozilla/5.0 (X11; Linux x86_64) AppleWebKit/537.36 (KHTML, like Gecko) Chrome/89.0.4389.90 Safari/537.36"
          },
          "host": {
            "type": "string",
            "example": "localhost:3001"
          },
          "path": {
            "type": "string",
            "example": "/api/authorities/1533a91de89"
          },
          "requestDate": {
            "type": "string",
            "format": "date-time",
            "example": "2021-03-11T10:06:07.000Z"
          }
        }
      },
      "LogCreate": {
        "type": "object",
        "properties": {
          "id": {
            "type": "string",
            "example": "a91de895620"
          },
          "ip": {
            "type": "string",
            "example": "127.0.0.1"
          },
          "host": {
            "type": "string",
            "example": "localhost:3001"
          },
          "path": {
            "type": "string",
            "example": "/api/authorities/1533a91de89"
          },
          "requestDate": {
            "type": "string",
            "format": "date-time",
            "example": "2021-03-11T10:06:07.000Z"
          },
          "statusCode": {
            "type": "number",
            "example": 200
          },
          "userAgent": {
            "type": "string",
            "example": "PostmanRuntime/7.26.8"
          },
          "method": {
            "type": "string",
            "example": "POST"
          },
          "username": {
            "type": "string",
            "example": "ferrylinton"
          },
          "requestBody": {
            "type": "string",
            "example": "{\"name\":\"10001\"}"
          },
          "responseBody": {
            "type": "string",
            "example": "{\"createdAt\":\"2021-03-11T22:51:05.785Z\",\"updatedAt\":\"2021-03-11T22:51:05.785Z\",\"createdBy\":\"824be5217e5,ferrylinton\",\"updatedBy\":\"824be5217e5,ferrylinton\",\"id\":\"806849d9e2d\",\"name\":\"10001\"}"
          }
        }
      },
      "LogDelete": {
        "type": "object",
        "properties": {
          "id": {
            "type": "string",
            "example": "a91de895620"
          },
          "ip": {
            "type": "string",
            "example": "127.0.0.1"
          },
          "host": {
            "type": "string",
            "example": "localhost:3001"
          },
          "path": {
            "type": "string",
            "example": "/api/authorities/1533a91de89"
          },
          "requestDate": {
            "type": "string",
            "format": "date-time",
            "example": "2021-03-11T10:06:07.000Z"
          },
          "statusCode": {
            "type": "number",
            "example": 204
          },
          "userAgent": {
            "type": "string",
            "example": "PostmanRuntime/7.26.8"
          },
          "method": {
            "type": "string",
            "example": "DELETE"
          },
          "username": {
            "type": "string",
            "example": "ferrylinton"
          },
          "responseBody": {
            "type": "string",
            "example": "{\"createdAt\":\"2021-03-11T22:51:05.785Z\",\"updatedAt\":\"2021-03-11T22:51:05.785Z\",\"createdBy\":\"824be5217e5,ferrylinton\",\"updatedBy\":\"824be5217e5,ferrylinton\",\"id\":\"806849d9e2d\",\"name\":\"10001\"}"
          }
        }
      },
      "LogUpdate": {
        "type": "object",
        "properties": {
          "id": {
            "type": "string",
            "example": "a91de895620"
          },
          "ip": {
            "type": "string",
            "example": "127.0.0.1"
          },
          "host": {
            "type": "string",
            "example": "localhost:3001"
          },
          "path": {
            "type": "string",
            "example": "/api/authorities/1533a91de89"
          },
          "requestDate": {
            "type": "string",
            "format": "date-time",
            "example": "2021-03-11T10:06:07.000Z"
          },
          "statusCode": {
            "type": "number",
            "example": 200
          },
          "userAgent": {
            "type": "string",
            "example": "PostmanRuntime/7.26.8"
          },
          "method": {
            "type": "string",
            "example": "PUT"
          },
          "username": {
            "type": "string",
            "example": "ferrylinton"
          },
          "params": {
            "type": "string",
            "example": "{\"id\":\"1533a91de89\"}"
          },
          "requestBody": {
            "type": "string",
            "example": "{\"name\":\"10001\"}"
          },
          "responseBody": {
            "type": "string",
            "example": "{\"createdAt\":\"2021-03-11T22:51:05.785Z\",\"updatedAt\":\"2021-03-11T22:51:05.785Z\",\"createdBy\":\"824be5217e5,ferrylinton\",\"updatedBy\":\"824be5217e5,ferrylinton\",\"id\":\"806849d9e2d\",\"name\":\"10001\"}"
          }
        }
      },
      "LogSecurity": {
        "type": "object",
        "properties": {
          "id": {
            "type": "string",
            "example": "a91de895620"
          },
          "ip": {
            "type": "string",
            "example": "127.0.0.1"
          },
          "userAgent": {
            "type": "string",
            "example": "PostmanRuntime/7.26.8"
          },
          "host": {
            "type": "string",
            "example": "localhost:3001"
          },
          "method": {
            "type": "string",
            "example": "POST"
          },
          "path": {
            "type": "string",
            "example": "/api/authorities/1533a91de89"
          },
          "requestDate": {
            "type": "string",
            "format": "date-time",
            "example": "2021-03-11T10:06:07.000Z"
          },
          "statusCode": {
            "type": "number",
            "example": 200
          },
          "username": {
            "type": "string",
            "example": "ferrylinton"
          }
        }
      }
    },
    "parameters": {
      "Page": {
        "in": "query",
        "name": "page",
        "required": false,
        "description": "ex. 1",
        "schema": {
          "type": "number",
          "minimum": 1,
          "example": null
        }
      }
    },
    "responses": {
      "BadRequest": {
        "description": "Validation Error",
        "content": {
          "application/json": {
            "schema": {
              "type": "array",
              "items": {
                "type": "object",
                "properties": {
                  "value": {
                    "type": "string",
                    "example": "USER_DEFAULT"
                  },
                  "msg": {
                    "type": "string",
                    "example": "username is required"
                  },
                  "param": {
                    "type": "string",
                    "example": "username"
                  },
                  "location": {
                    "type": "string",
                    "example": "body"
                  }
                }
              }
            }
          }
        }
      },
      "InternalServerError": {
        "description": "Internal Server Error",
        "content": {
          "application/json": {
            "schema": {
              "type": "object",
              "properties": {
                "msg": {
                  "type": "string",
                  "example": "errors is not defined"
                }
              }
            }
          }
        }
      },
      "NotFound": {
        "description": "The specified resource was not found",
        "content": {
          "application/json": {
            "schema": {
              "type": "object",
              "properties": {
                "msg": {
                  "type": "string",
                  "example": "http://localhost:3001/api/authorities/0dd83546658 is not found"
                }
              }
            }
          }
        }
      },
      "Unauthorized": {
        "description": "Unauthorized",
        "content": {
          "application/json": {
            "schema": {
              "type": "object",
              "properties": {
                "msg": {
                  "type": "string",
                  "example": "No authorization token was found"
                }
              }
            }
          }
        }
      }
    },
    "securitySchemes": {
      "bearerAuth": {
        "type": "http",
        "scheme": "bearer",
        "bearerFormat": "JWT"
      }
    }
  }
}
